{
  "customers": [
    {
      "authorizationDate": "<%mock.date.past%>",
      "transactedAccountNumber": "<%mock.finance.mask%>14••••••<%mock.finance.mask%>",
      "accountIdentifier": "<%mock.finance.mask%>14••••••<%mock.finance.mask%>",
      "authorizationAmount": "<%mock.custom.randomFloat(1000)%>",
      "internalStatusCode": "<%mock.custom.getOne('Blank', 'X', 'O', 'N', 'D')%>",
      "externalStatusCode": "<%mock.custom.getOne('A', 'B', 'C', 'E','I', 'L', 'U', 'Z', 'Blank')%>",
      "transactionDate": "<%{new Date(2020,11,10)}%>",
      "postDate": "<%{new Date(2020,11,10)}%>",
      "aggregateTransactionAmount": "<%mock.custom.randomFloat(1000)%>",
      "originalReferenceNumber": "<%mock.random.number(1000)%>",
      "descriptionOfTransaction": "A.M. MARKETPLACES",
      "originalPostDate": "<%mock.date.past%>",
      "presentationInstrumentTypeCode": "<%mock.custom.getOne('01','02','03','04','06','07','08','99')%>",
      "transactionAccountNumber": "<%mock.finance.mask%>14••••••<%mock.finance.mask%>",
      "transactionCode": "<%mock.custom.getOne('0','1','2','253','254','255','271','280','281','282','283','284','286','287','400','401','900','910','911','912','947','948','959','960','961','962','963','964','965','966','967','976','977','978','979','980','981','984','985','986','987','988','989','990','991','992','993','994','997','998','999')%>",
      "merchantName": "GORDON STORE",
      "businessIdentification": "<%mock.random.number(1000)%>",
      "merchantCategoryCode": "3437 - CITE",
      "merchantAccount": "<%mock.finance.mask%>14••••••<%mock.finance.mask%>",
      "riskIdentificationServiceIndicator": "<%mock.custom.getOne('1','2','3')%>",
      "merchantCity": "<%mock.address.city%>",
      "merchantState": "<%mock.address.stateAbbr%>",
      "currencyCode": "840 - US Dollar",
      "transactionAmount": "<%mock.custom.randomFloat(1000)%>",
      "authorizationNumber": "<%mock.random.number(1000)%>",
      "authorizationSourceCode": "<%mock.custom.getOne('A','B','C','D','E','0','1','2','3','4','5','6','7','8','9')%>",
      "agentNumber": "<%mock.random.number(1000)%>",
      "dailyStatementSequenceNumber": "<%mock.random.number(1000)%>G",
      "automatedTellerMachineAtmFlag": "<%mock.custom.getOne('0','1','2','3')%>",
      "debitProductCode": "",
      "sourceTransactionIdentifier": "<%mock.custom.getOne('004','009','014','019')%>",
      "promotionIdentifier": "<%mock.random.number(1000)%>",
      "detailIndustryTransactionIdentifier": "<%mock.random.number(1000)%>",
      "flapIdentifier": "<%mock.random.number(1000)%>",
      "feeAttribute": "",
      "mailPhoneIndicator": "<%mock.custom.getOne('1','2','3','4','5','6','7','8','9')%>",
      "dualityFlag": "<%mock.custom.getOne('M','V')%>",
      "visaNetInterchangeCenterProcessingDate": "<%mock.date.past%>",
      "pointOfSaleEntryMode": "<%mock.custom.getOne('00','01','02','03','04','05','06','07','09','10','79','80','81','82','90','91')%>"
    }
  ],
  "_config": {
    "customers": {
      "count": 1
    }
  }
}