{
  "customers": [
    {
      "authorizationCode": "<%mock.random.number(1000000000)%>",
      "authorizationDateTime": "<%mock.date.recent%>",
      "authorizationApprovalCode": "<%mock.custom.getOne('DAS001', 'DAS002', 'DAS003', 'DAS004', 'DAS005', 'DAS006')%>",
      "authorizationAmount": "<%mock.random.number(10000)%>",
      "authorizationAvailable": "<%mock.random.number(100000)%>",
      "authorizationDescription": "<%mock.custom.getOne('LIONS EYE HOSPITAL', 'WHO LES ALE BOX INTERNET', 'EXPLORE BANARAS TECHNO', 'LIONS EYE HOSPITAL', 'GOL DIN WASTE SERVICES', 'WANDER TRAILS SERVICES')%>"
    }
  ],
  "_config": {
    "customers": {
      "count": 60
    }
  }
}