{
  "customers": [
    {
      "authorizationDate": "<%mock.date.past%>",
      "authorizationTime": "<%mock.random.number(12)%>:<%mock.random.number(60)%> <%mock.custom.getOne('AM', 'PM')%>",
      "authorizationMethodCode": "<%mock.custom.getOne('0','1','2','3','4','5','6','7','8','C')%>",
      "authorizationApprovalCode": "<%mock.random.number(100)%>",
      "transactedAccountNumber": "<%mock.finance.mask%>14••••••<%mock.finance.mask%>",
      "accountIdentifier": "<%mock.finance.mask%>14••••••<%mock.finance.mask%>",
      "authorizationAmount": "<%mock.custom.randomFloat(1000)%>",
      "availableCreditAmount": "<%mock.custom.randomFloat(1000)%>",
      "expirationDate": "<%mock.date.future%>",
      "authorizationResponseDescriptionText": "Auth Granted",
      "authorizationFilterCode": "<%mock.custom.getOne('A','D','space')%>",
      "internalStatusCode": "<%mock.custom.getOne('Blank', 'X', 'O', 'N', 'D')%>",
      "externalStatusCode": "<%mock.custom.getOne('A', 'B', 'C', 'E','I', 'L', 'U', 'Z', 'Blank')%>",
      "authorizationLineId": "<%mock.custom.getOne('BAS','B','FDR','FIRST DATA','INA - Mastercard','IZ - Mastercard','OTH','ZAM','Zxxx')%>",
      "presentationInstrumentTypeCode": "<%mock.custom.getOne('01','02','03','04','06','07','08','99')%>",
      "authorizationTypeCode": "<%mock.custom.getOne('AA','AP','CA','CD','CE','CO','CP','CS','CT','CX','DA','DC','DM','DP','IA','MA','MC','MD','ME','MI','MO','MP','MR','MS','MT','MX','PA','PP','PR','PX','PZ','QA','QD','QQ','QR','QZ','VA','XC','XM')%>",
      "merchantName": "HARFORD",
      "merchantNumber": "<%mock.finance.mask%>14••••••<%mock.finance.mask%>",
      "merchantCity": "Bel Air",
      "merchantStateProvince": "MD",
      "merchantCategoryCode": "<%mock.random.number(1000)%> - Restaurant",
      "merchantZipCode": "55423-8500",
      "merchantCountryCode": "840 - US",
      "transactionSourceIdentifier": "<%mock.custom.getOne('004','009','014','019')%>",
      "agentIdentifier": "<%mock.random.number(10000)%>",
      "nameMatch": "",
      "terminalIdentifier": "ZCJ2",
      "NA_industryID": "",
      "masterCardPosEntryModeCode": "05 - Chip/Smart Card",
      "NA_cvvVerification": "<%mock.custom.getOne('A','B','N','P','S','U','X','Y','Z','0','1','2','3','4','blank')%>",
      "NA_pinVerification": "<%mock.custom.getOne('1','2','A','B','X','Y','Z','blank')%>",
      "NA_avs": "<%mock.custom.getOne('A','B','C','D','E','G','I','M','N','N/A','P','R','S','U','W','X','Y','Z')%>"
    }
  ],
  "_config": {
    "customers": {
      "count": 1
    }
  }
}