{
  "customers": [
    {
      "accountNumber": "<%mock.finance.mask%>14••••••<%mock.finance.mask%>",
      "statusDate": "<%mock.date.past%>",
      "cycleDate": "<%mock.date.past%>",
      "clientID": "<%mock.random.number(10000)%>",
      "sysPrinAgent": "<%mock.random.number(10000)%>/<%mock.random.number(10000)%>/<%mock.random.number(10000)%>",
      "paymentDueDate": "<%mock.date.past%>",
      "agentBankeName": "<%mock.company.companyName%>",
      "primaryCustomerName": "<%mock.name.firstName%>",
      "socialSecurityIdentifier": "<%mock.finance.mask%>",
      "internalStatusCode": "<%mock.custom.getOne('Blank', 'X', 'O', 'N', 'D')%>",
      "externalStatusCode": "<%mock.custom.getOne('A', 'B', 'C', 'E','I', 'L', 'U', 'Z', 'Blank')%>",
      "lastStatusCodeChangeDate": "<%mock.date.past%>",
      "billingCycleCode": "<%mock.random.number(100)%>",
      "nextCycleDate": "<%mock.date.past%>",
      "currentBalanceAmount": "<%mock.random.number(10000)%>",
      "creditLimitAmount": "<%mock.random.number(10000)%>",
      "availableCreditAmount": "<%mock.random.number(10000)%>",
      "currentMinimumPaymentDueAmount": "<%mock.random.number(10)%>",
      "delinquentAmount": "<%mock.random.number(100)%>",
      "daysDelinquentCount": "<%mock.random.number(100)%>",
      "lastPaymentDate": "<%mock.date.past%>",
      "lastPaymentAmount": "<%mock.random.number(10000)%>",
      "lastReageDate": "<%mock.date.past%>",
      "reageCount": "<%mock.random.number(100)%>",
      "lastMonetaryDate": "<%mock.date.past%>",
      "lastMonetaryType": "<%mock.custom.getOne('V', 'X', 'C', 'Y', 'blank', 'P', 'R', 'S', 'Z')%>",
      "openDate": "<%mock.date.past%>",
      "collectionsEntryDate": "<%mock.date.past%>",
      "creditBureauScoreNumber": "<%mock.random.number(10000)%>",
      "behaviorScoreIdentifier": "<%mock.random.number(10000)%>"
    }
  ],
  "cardholders": [
    {
      "secondaryName": "<%mock.name.lastName%>"
    }
  ],
  "collectionStatus": {
    "promiseToPayDate": "<%mock.date.future%>",
    "promiseToPayAmount": "<%mock.random.number(1000)%>"
  },
  "_config": {
    "customers": {
      "count": 1
    },
    "cardholders": {
      "count": 1
    },
    "collectionStatus": {
      "count": 1
    }
  }
}
