{
    "data": [
        {
            "code": "A",
            "text": "Authorization Prohibited"
        },
        {
            "code": "B",
            "text": "Bankrupt"
        },
        {
            "code": "Z",
            "text": "Charged Off"
        },
        {
            "code": "C",
            "text": "Closed"
        },
        {
            "code": "F",
            "text": "Frozen"
        },
        {
            "code": "I",
            "text": "Interest Accrual Prohibited"
        },
        {
            "code": "L",
            "text": "Lost"
        },
        {
            "code": "Blank",
            "text": "Normal"
        },
        {
            "code": "E",
            "text": "Revoked"
        },
        {
            "code": "U",
            "text": "Stolen"
        }
    ]
}