{
  "Chronicle_Type": [
    {
      "value": "Memo Behavior 1",
      "description": "Memo Behavior 1"
    },
    {
      "value": "Memo Behavior 2",
      "description": "Memo Behavior 2"
    },
    {
      "value": "Memo Behavior 3",
      "description": "Memo Behavior 3"
    },
    {
      "value": "Memo Behavior 4",
      "description": "Memo Behavior 4"
    },
    {
      "value": "Memo Behavior 5",
      "description": "Memo Behavior 5"
    }
  ],
  "CIS_Source": [
    {
      "value": "A",
      "description": "A - Account Level Processing"
    },
    {
      "value": "J",
      "description": "J - Adjustment"
    },
    {
      "value": "B",
      "description": "B - Chargeback"
    },
    {
      "value": "W",
      "description": "W - CIMS"
    },
    {
      "value": "C",
      "description": "C - CIS"
    },
    {
      "value": "X",
      "description": "X - Collections memo"
    },
    {
      "value": "N",
      "description": "N - Non-monetary transaction"
    },
    {
      "value": "P",
      "description": "P - Payment"
    },
    {
      "value": "R",
      "description": "R - Retrieval"
    }
  ],
  "CIS_Type": [
    {
      "value": "Permanent",
      "description": "Permanent"
    },
    {
      "value": "Priority",
      "description": "Priority"
    },
    {
      "value": "Standard",
      "description": "Standard"
    }
  ]
}